{
	"forge_marker": 1,
	"defaults": {
		"textures": {
			"all": "minecraft:blocks/slime_ore"
		}
	},
	"variants": {
		"normal": {
			"model": "cube_all"
		},
		"inventory": {
			"model": "cube_all"
		}
	}
}