{
  "parent": "block/block",
  "textures": {
    "particle": "minecraft:blocks/slimetopia_portal",
    "portal": "minecraft:blocks/slimetopia_portal"
  },
  "elements": [
    {
      "from": [0, 0, 6],
      "to": [16, 16, 10],
      "faces": {
        "north": {"uv": [0, 0, 16, 16], "texture": "#portal"},
        "east": {"uv": [6, 0, 10, 16], "texture": "#portal"},
        "south": {"uv": [0, 0, 16, 16], "texture": "#portal"},
        "west": {"uv": [6, 0, 10, 16], "texture": "#portal"},
        "up": {"uv": [0, 6, 16, 10], "texture": "#portal"},
        "down": {"uv": [0, 6, 16, 10], "texture": "#portal"}
      }
    }
  ]
}


